<svg width="148" height="26" viewBox="0 0 148 26" fill="none" xmlns="http://www.w3.org/2000/svg">
<path fill-rule="evenodd" clip-rule="evenodd" d="M32 26C39.0692 26 44.8 20.1797 44.8 13C44.8 5.8203 39.0692 0 32 0C24.9307 0 19.2 5.8203 19.2 13C19.2 20.1797 24.9307 26 32 26ZM32 19.0244C28.724 19.0244 26.0683 16.3272 26.0683 13C26.0683 9.67282 28.724 6.97561 32 6.97561C35.276 6.97561 37.9317 9.67282 37.9317 13C37.9317 16.3272 35.276 19.0244 32 19.0244Z" fill="white"/>
<path fill-rule="evenodd" clip-rule="evenodd" d="M12.8 26C19.8692 26 25.6 20.1797 25.6 13C25.6 5.8203 19.8692 0 12.8 0C5.73073 0 -2.28882e-05 5.8203 -2.28882e-05 13C-2.28882e-05 20.1797 5.73073 26 12.8 26ZM12.8 19.0244C9.52398 19.0244 6.86827 16.3272 6.86827 13C6.86827 9.67282 9.52398 6.97561 12.8 6.97561C16.076 6.97561 18.7317 9.67282 18.7317 13C18.7317 16.3272 16.076 19.0244 12.8 19.0244Z" fill="#EF483E"/>
<path fill-rule="evenodd" clip-rule="evenodd" d="M57.8777 9.41407H54.4V7.3125H63.9067V9.41407H60.429V18.6801H57.8777V9.41407ZM66.7045 18.887C66.0437 18.887 65.4478 18.7862 64.9169 18.5845C64.3861 18.3829 63.9311 18.0936 63.5519 17.7168C63.1727 17.34 62.8802 16.8863 62.6743 16.3556C62.4685 15.8249 62.3656 15.2305 62.3656 14.5725C62.3656 13.9144 62.4685 13.3174 62.6743 12.7813C62.8802 12.2453 63.1727 11.7889 63.5519 11.4121C63.9311 11.0353 64.3861 10.7435 64.9169 10.5365C65.4478 10.3295 66.0437 10.226 66.7045 10.226C67.3654 10.226 67.9639 10.3295 68.5002 10.5365C69.0365 10.7435 69.4942 11.0353 69.8734 11.4121C70.2526 11.7889 70.5451 12.2453 70.7509 12.7813C70.9568 13.3174 71.0597 13.9144 71.0597 14.5725C71.0597 15.2305 70.9568 15.8249 70.7509 16.3556C70.5451 16.8863 70.2526 17.34 69.8734 17.7168C69.4942 18.0936 69.0365 18.3829 68.5002 18.5845C67.9639 18.7862 67.3654 18.887 66.7045 18.887ZM66.7045 17.1994C67.0945 17.1994 67.4223 17.1251 67.6877 16.9765C67.9531 16.8279 68.1644 16.6289 68.3215 16.3795C68.4786 16.1301 68.5896 15.8488 68.6546 15.5357C68.7196 15.2226 68.7521 14.9015 68.7521 14.5725C68.7521 14.2434 68.7196 13.9197 68.6546 13.6013C68.5896 13.2829 68.4786 13.0016 68.3215 12.7575C68.1644 12.5133 67.9531 12.3143 67.6877 12.1604C67.4223 12.0065 67.0945 11.9296 66.7045 11.9296C66.3145 11.9296 65.9895 12.0065 65.7295 12.1604C65.4695 12.3143 65.2609 12.5133 65.1038 12.7575C64.9467 13.0016 64.8357 13.2829 64.7707 13.6013C64.7057 13.9197 64.6732 14.2434 64.6732 14.5725C64.6732 14.9015 64.7057 15.2226 64.7707 15.5357C64.8357 15.8488 64.9467 16.1301 65.1038 16.3795C65.2609 16.6289 65.4695 16.8279 65.7295 16.9765C65.9895 17.1251 66.3145 17.1994 66.7045 17.1994ZM77.4814 15.6551C77.2648 15.7188 76.9452 15.7957 76.5227 15.8859C76.1001 15.9762 75.6614 16.0213 75.2063 16.0213C74.058 16.0213 73.2346 15.7612 72.7362 15.2411C72.2379 14.7211 71.9887 14.0152 71.9887 13.1237V10.4489H74.2801V12.6619C74.2801 13.2669 74.3992 13.6862 74.6376 13.9197C74.8759 14.1532 75.2659 14.27 75.8076 14.27C76.1435 14.27 76.4576 14.2434 76.7502 14.1904C77.0427 14.1373 77.2864 14.0842 77.4814 14.0311V10.4489H79.789V18.6801H77.4814V15.6551ZM81.2056 10.4489H83.5132V13.8083L86.6008 10.4489H89.3147L85.8045 14.0789L89.7697 18.6801H86.9746L84.0007 15.2571L83.5132 15.7825V18.6801H81.2056V10.4489ZM92.6975 18.887C92.2967 18.887 91.9229 18.8393 91.5762 18.7437C91.2295 18.6482 90.9262 18.4996 90.6662 18.298C90.4062 18.0963 90.203 17.8416 90.0568 17.5338C89.9105 17.2259 89.8374 16.8598 89.8374 16.4352C89.8374 15.9682 89.9214 15.5834 90.0893 15.2809C90.2572 14.9784 90.4739 14.737 90.7393 14.5565C91.0047 14.3761 91.3081 14.2408 91.6493 14.1506C91.9906 14.0603 92.3346 13.9887 92.6813 13.9356C93.028 13.8825 93.3692 13.8401 93.7051 13.8083C94.0409 13.7764 94.3388 13.7286 94.5989 13.665C94.8589 13.6013 95.0647 13.5084 95.2164 13.3863C95.3681 13.2643 95.4385 13.0865 95.4276 12.853C95.4276 12.6195 95.387 12.4284 95.3058 12.2798C95.2245 12.1312 95.1162 12.0171 94.9807 11.9375C94.8453 11.8579 94.6882 11.8049 94.5095 11.7783C94.3307 11.7518 94.1384 11.7385 93.9326 11.7385C93.4776 11.7385 93.12 11.8341 92.86 12.0251C92.6 12.2162 92.4483 12.5346 92.405 12.9804H90.0974C90.1299 12.4603 90.2653 12.0225 90.5037 11.6669C90.742 11.3113 91.0454 11.0274 91.4137 10.8151C91.7821 10.6028 92.1937 10.4516 92.6488 10.3614C93.1038 10.2711 93.5696 10.226 94.0463 10.226C94.4688 10.226 94.8968 10.2552 95.3301 10.3136C95.7635 10.372 96.1589 10.4861 96.5164 10.6559C96.874 10.8257 97.1665 11.0645 97.394 11.3723C97.6215 11.6802 97.7352 12.0782 97.7352 12.5664V16.8492C97.7352 17.2206 97.7569 17.5762 97.8002 17.9159C97.8436 18.2555 97.9194 18.5102 98.0278 18.6801H95.6877C95.6443 18.5527 95.6091 18.4227 95.582 18.29C95.5549 18.1573 95.536 18.022 95.5251 17.884C95.1568 18.2555 94.7234 18.5155 94.2251 18.6641C93.7267 18.8127 93.2175 18.887 92.6975 18.887ZM93.5588 17.3905C94.0138 17.3905 94.3659 17.3162 94.6151 17.1676C94.8643 17.019 95.0485 16.8412 95.1676 16.6342C95.2868 16.4272 95.3599 16.2176 95.387 16.0053C95.4141 15.7931 95.4276 15.6232 95.4276 15.4959V14.6521C95.3301 14.737 95.211 14.8033 95.0701 14.8511C94.9293 14.8988 94.7722 14.9386 94.5989 14.9705C94.4255 15.0023 94.2468 15.0289 94.0626 15.0501C93.8784 15.0713 93.6942 15.0978 93.5101 15.1297C93.3259 15.1615 93.1525 15.204 92.99 15.2571C92.8275 15.3101 92.684 15.3818 92.5594 15.472C92.4348 15.5622 92.3346 15.6763 92.2588 15.8143C92.1829 15.9523 92.145 16.1274 92.145 16.3397C92.145 16.552 92.1829 16.7244 92.2588 16.8571C92.3346 16.9898 92.4375 17.0959 92.5675 17.1755C92.6975 17.2551 92.8492 17.3109 93.0225 17.3427C93.1959 17.3745 93.3746 17.3905 93.5588 17.3905Z" fill="white"/>
<path fill-rule="evenodd" clip-rule="evenodd" d="M107.691 9.41407H104.213V7.3125H113.72V9.41407H110.242V18.6801H107.691V9.41407ZM116.518 18.887C115.857 18.887 115.261 18.7862 114.73 18.5845C114.199 18.3829 113.744 18.0936 113.365 17.7168C112.986 17.34 112.694 16.8863 112.488 16.3556C112.282 15.8249 112.179 15.2305 112.179 14.5725C112.179 13.9144 112.282 13.3174 112.488 12.7813C112.694 12.2453 112.986 11.7889 113.365 11.4121C113.744 11.0353 114.199 10.7435 114.73 10.5365C115.261 10.3295 115.857 10.226 116.518 10.226C117.179 10.226 117.777 10.3295 118.314 10.5365C118.85 10.7435 119.308 11.0353 119.687 11.4121C120.066 11.7889 120.358 12.2453 120.564 12.7813C120.77 13.3174 120.873 13.9144 120.873 14.5725C120.873 15.2305 120.77 15.8249 120.564 16.3556C120.358 16.8863 120.066 17.34 119.687 17.7168C119.308 18.0936 118.85 18.3829 118.314 18.5845C117.777 18.7862 117.179 18.887 116.518 18.887ZM116.518 17.1994C116.908 17.1994 117.236 17.1251 117.501 16.9765C117.766 16.8279 117.978 16.6289 118.135 16.3795C118.292 16.1301 118.403 15.8488 118.468 15.5357C118.533 15.2226 118.565 14.9015 118.565 14.5725C118.565 14.2434 118.533 13.9197 118.468 13.6013C118.403 13.2829 118.292 13.0016 118.135 12.7575C117.978 12.5133 117.766 12.3143 117.501 12.1604C117.236 12.0065 116.908 11.9296 116.518 11.9296C116.128 11.9296 115.803 12.0065 115.543 12.1604C115.283 12.3143 115.074 12.5133 114.917 12.7575C114.76 13.0016 114.649 13.2829 114.584 13.6013C114.519 13.9197 114.487 14.2434 114.487 14.5725C114.487 14.9015 114.519 15.2226 114.584 15.5357C114.649 15.8488 114.76 16.1301 114.917 16.3795C115.074 16.6289 115.283 16.8279 115.543 16.9765C115.803 17.1251 116.128 17.1994 116.518 17.1994ZM127.295 15.6551C127.078 15.7188 126.759 15.7957 126.336 15.8859C125.913 15.9762 125.475 16.0213 125.02 16.0213C123.871 16.0213 123.048 15.7612 122.55 15.2411C122.051 14.7211 121.802 14.0152 121.802 13.1237V10.4489H124.093V12.6619C124.093 13.2669 124.213 13.6862 124.451 13.9197C124.689 14.1532 125.079 14.27 125.621 14.27C125.957 14.27 126.271 14.2434 126.564 14.1904C126.856 14.1373 127.1 14.0842 127.295 14.0311V10.4489H129.602V18.6801H127.295V15.6551ZM131.019 10.4489H133.327V13.8083L136.414 10.4489H139.128L135.618 14.0789L139.583 18.6801H136.788L133.814 15.2571L133.327 15.7825V18.6801H131.019V10.4489ZM142.511 18.887C142.11 18.887 141.736 18.8393 141.39 18.7437C141.043 18.6482 140.74 18.4996 140.48 18.298C140.22 18.0963 140.016 17.8416 139.87 17.5338C139.724 17.2259 139.651 16.8598 139.651 16.4352C139.651 15.9682 139.735 15.5834 139.903 15.2809C140.071 14.9784 140.287 14.737 140.553 14.5565C140.818 14.3761 141.121 14.2408 141.463 14.1506C141.804 14.0603 142.148 13.9887 142.495 13.9356C142.841 13.8825 143.183 13.8401 143.518 13.8083C143.854 13.7764 144.152 13.7286 144.412 13.665C144.672 13.6013 144.878 13.5084 145.03 13.3863C145.181 13.2643 145.252 13.0865 145.241 12.853C145.241 12.6195 145.2 12.4284 145.119 12.2798C145.038 12.1312 144.93 12.0171 144.794 11.9375C144.659 11.8579 144.502 11.8049 144.323 11.7783C144.144 11.7518 143.952 11.7385 143.746 11.7385C143.291 11.7385 142.933 11.8341 142.673 12.0251C142.413 12.2162 142.262 12.5346 142.218 12.9804H139.911C139.943 12.4603 140.079 12.0225 140.317 11.6669C140.555 11.3113 140.859 11.0274 141.227 10.8151C141.595 10.6028 142.007 10.4516 142.462 10.3614C142.917 10.2711 143.383 10.226 143.86 10.226C144.282 10.226 144.71 10.2552 145.143 10.3136C145.577 10.372 145.972 10.4861 146.33 10.6559C146.687 10.8257 146.98 11.0645 147.207 11.3723C147.435 11.6802 147.549 12.0782 147.549 12.5664V16.8492C147.549 17.2206 147.57 17.5762 147.614 17.9159C147.657 18.2555 147.733 18.5102 147.841 18.6801H145.501C145.458 18.5527 145.422 18.4227 145.395 18.29C145.368 18.1573 145.349 18.022 145.338 17.884C144.97 18.2555 144.537 18.5155 144.038 18.6641C143.54 18.8127 143.031 18.887 142.511 18.887ZM143.372 17.3905C143.827 17.3905 144.179 17.3162 144.428 17.1676C144.678 17.019 144.862 16.8412 144.981 16.6342C145.1 16.4272 145.173 16.2176 145.2 16.0053C145.227 15.7931 145.241 15.6232 145.241 15.4959V14.6521C145.143 14.737 145.024 14.8033 144.883 14.8511C144.743 14.8988 144.586 14.9386 144.412 14.9705C144.239 15.0023 144.06 15.0289 143.876 15.0501C143.692 15.0713 143.508 15.0978 143.323 15.1297C143.139 15.1615 142.966 15.204 142.803 15.2571C142.641 15.3101 142.497 15.3818 142.373 15.472C142.248 15.5622 142.148 15.6763 142.072 15.8143C141.996 15.9523 141.958 16.1274 141.958 16.3397C141.958 16.552 141.996 16.7244 142.072 16.8571C142.148 16.9898 142.251 17.0959 142.381 17.1755C142.511 17.2551 142.663 17.3109 142.836 17.3427C143.009 17.3745 143.188 17.3905 143.372 17.3905Z" fill="white"/>
<path d="M102.78 15.7152C103.653 15.7152 104.36 15.0222 104.36 14.1673C104.36 13.3125 103.653 12.6195 102.78 12.6195C101.907 12.6195 101.2 13.3125 101.2 14.1673C101.2 15.0222 101.907 15.7152 102.78 15.7152Z" fill="white"/>
</svg>
