<svg width="95" height="51" viewBox="0 0 95 51" fill="none" xmlns="http://www.w3.org/2000/svg">
    <g filter="url(#filter0_d)">
        <path fill-rule="evenodd" clip-rule="evenodd" d="M22 2C12.0589 2 4 10.0589 4 20C4 29.9411 12.0589 38 22 38H40L47.3415 44.4238C47.7185 44.7537 48.2815 44.7537 48.6585 44.4238L56 38H73C82.9411 38 91 29.9411 91 20C91 10.0589 82.9411 2 73 2H22Z" fill="white"/>
    </g>
    <path d="M45.4785 18.2529C45.4512 18.1572 45.417 18.0479 45.376 17.9248C45.335 17.7972 45.278 17.6696 45.2051 17.542C45.1367 17.4144 45.0479 17.2891 44.9385 17.166C44.8337 17.043 44.7015 16.9336 44.542 16.8379C44.3825 16.7422 44.1911 16.6647 43.9678 16.6055C43.7445 16.5462 43.4824 16.5166 43.1816 16.5166C43.054 16.5166 42.9036 16.5326 42.7305 16.5645C42.5573 16.5964 42.3796 16.6579 42.1973 16.749C42.015 16.8356 41.835 16.9587 41.6572 17.1182C41.4795 17.2777 41.32 17.4873 41.1787 17.7471C41.042 18.0023 40.9303 18.3122 40.8438 18.6768C40.7572 19.0413 40.7139 19.4743 40.7139 19.9756C40.7139 20.5179 40.7708 21.0033 40.8848 21.4316C40.9987 21.86 41.1628 22.2223 41.377 22.5186C41.5911 22.8148 41.8486 23.0426 42.1494 23.2021C42.4548 23.3571 42.7988 23.4346 43.1816 23.4346C43.6237 23.4346 43.9837 23.3662 44.2617 23.2295C44.5397 23.0928 44.7607 22.9264 44.9248 22.7305C45.0934 22.5345 45.2188 22.3294 45.3008 22.1152C45.3828 21.901 45.4466 21.7142 45.4922 21.5547H47.5771C47.4632 22.1836 47.2741 22.7305 47.0098 23.1953C46.7454 23.6556 46.4242 24.0384 46.0459 24.3438C45.6676 24.6491 45.2415 24.877 44.7676 25.0273C44.2982 25.1777 43.7969 25.2529 43.2637 25.2529C42.5163 25.2529 41.8532 25.1299 41.2744 24.8838C40.7002 24.6331 40.2148 24.2777 39.8184 23.8174C39.4264 23.3571 39.1279 22.8034 38.9229 22.1562C38.7178 21.5046 38.6152 20.7777 38.6152 19.9756C38.6152 19.3558 38.6745 18.7952 38.793 18.2939C38.9115 17.7926 39.0755 17.3483 39.2852 16.9609C39.4993 16.569 39.75 16.2318 40.0371 15.9492C40.3242 15.6621 40.6364 15.4274 40.9736 15.2451C41.3154 15.0583 41.6732 14.9215 42.0469 14.835C42.4206 14.7438 42.7988 14.6982 43.1816 14.6982C43.7285 14.6982 44.2139 14.7552 44.6377 14.8691C45.0615 14.9831 45.4329 15.1357 45.752 15.3271C46.071 15.5186 46.3421 15.7373 46.5654 15.9834C46.7933 16.2295 46.9779 16.4847 47.1191 16.749C47.265 17.0088 47.3721 17.2708 47.4404 17.5352C47.5133 17.7949 47.5589 18.0342 47.5771 18.2529H45.4785ZM49.0947 17.5488H51.0293V20.3789L53.8184 17.5488H56.3887L53.3125 20.6455L56.5186 25H53.9961L51.8086 21.8555L51.0293 22.6416V25H49.0947V17.5488ZM64.7012 25H62.7734V19.1211H60.4902L60.4492 20.5088C60.4264 21.2881 60.3763 21.9717 60.2988 22.5596C60.2214 23.1475 60.0938 23.6396 59.916 24.0361C59.7428 24.4281 59.5059 24.7243 59.2051 24.9248C58.9089 25.1253 58.5283 25.2256 58.0635 25.2256C57.8447 25.2256 57.6533 25.2119 57.4893 25.1846C57.3252 25.1618 57.1908 25.1276 57.0859 25.082V23.4619C57.1497 23.4893 57.2295 23.5143 57.3252 23.5371C57.4255 23.5599 57.5462 23.5713 57.6875 23.5713C57.8333 23.5713 57.9632 23.528 58.0771 23.4414C58.1911 23.3503 58.2891 23.1885 58.3711 22.9561C58.4531 22.7191 58.5169 22.3932 58.5625 21.9785C58.6081 21.5638 58.6377 21.0283 58.6514 20.3721L58.7061 17.5488H64.7012V25ZM72.7539 23.5303C72.7539 23.7536 72.7653 23.9382 72.7881 24.084C72.8154 24.2253 72.8496 24.3392 72.8906 24.4258C72.9316 24.5078 72.9772 24.5693 73.0273 24.6104C73.082 24.6468 73.139 24.6742 73.1982 24.6924V25H71.0586C71.0221 24.9134 70.9811 24.7995 70.9355 24.6582C70.8945 24.5124 70.874 24.3369 70.874 24.1318C70.7236 24.2868 70.5755 24.4303 70.4297 24.5625C70.2884 24.6947 70.1289 24.8109 69.9512 24.9111C69.7734 25.0068 69.5684 25.082 69.3359 25.1367C69.1035 25.196 68.8232 25.2256 68.4951 25.2256C68.1624 25.2256 67.8548 25.1755 67.5723 25.0752C67.2943 24.9795 67.0527 24.8359 66.8477 24.6445C66.6426 24.4531 66.4831 24.2139 66.3691 23.9268C66.2552 23.6396 66.1982 23.307 66.1982 22.9287C66.1982 22.6234 66.2461 22.3408 66.3418 22.0811C66.4375 21.8167 66.5719 21.5866 66.7451 21.3906C66.9229 21.1901 67.137 21.026 67.3877 20.8984C67.6429 20.7663 67.9277 20.6774 68.2422 20.6318L70.1357 20.3516C70.2041 20.3424 70.277 20.3288 70.3545 20.3105C70.4365 20.2923 70.5117 20.2627 70.5801 20.2217C70.6484 20.1761 70.7054 20.1169 70.751 20.0439C70.7965 19.9665 70.8193 19.8639 70.8193 19.7363C70.8193 19.6133 70.7988 19.5016 70.7578 19.4014C70.7214 19.2965 70.6576 19.2077 70.5664 19.1348C70.4753 19.0573 70.3522 18.998 70.1973 18.957C70.0469 18.916 69.8577 18.8955 69.6299 18.8955C69.3701 18.8955 69.1605 18.9229 69.001 18.9775C68.846 19.0277 68.723 19.1006 68.6318 19.1963C68.5407 19.2874 68.4746 19.3968 68.4336 19.5244C68.3926 19.6475 68.363 19.7796 68.3447 19.9209H66.4102C66.4102 19.8298 66.4238 19.7044 66.4512 19.5449C66.4831 19.3809 66.5378 19.2031 66.6152 19.0117C66.6973 18.8203 66.8089 18.6266 66.9502 18.4307C67.096 18.2347 67.2852 18.057 67.5176 17.8975C67.7546 17.7334 68.0417 17.599 68.3789 17.4941C68.7161 17.3893 69.1195 17.3346 69.5889 17.3301C70.2542 17.3301 70.792 17.3984 71.2021 17.5352C71.6169 17.6673 71.9382 17.8428 72.166 18.0615C72.3984 18.2757 72.5534 18.5173 72.6309 18.7861C72.7129 19.0505 72.7539 19.3148 72.7539 19.5791V23.5303ZM70.8193 21.3633C70.7008 21.4271 70.5824 21.4863 70.4639 21.541C70.3454 21.5911 70.1882 21.6344 69.9922 21.6709L69.4795 21.7666C69.2562 21.8076 69.0602 21.8555 68.8916 21.9102C68.723 21.9648 68.5817 22.0378 68.4678 22.1289C68.3584 22.2155 68.2741 22.3226 68.2148 22.4502C68.1602 22.5778 68.1328 22.7373 68.1328 22.9287C68.1328 23.0882 68.1579 23.2272 68.208 23.3457C68.2581 23.4596 68.3265 23.5553 68.4131 23.6328C68.5042 23.7057 68.609 23.7604 68.7275 23.7969C68.846 23.8333 68.9736 23.8516 69.1104 23.8516C69.1833 23.8516 69.2767 23.8447 69.3906 23.8311C69.5046 23.8128 69.6253 23.7809 69.7529 23.7354C69.8805 23.6898 70.0081 23.6283 70.1357 23.5508C70.2633 23.4688 70.3773 23.3639 70.4775 23.2363C70.5778 23.1087 70.6598 22.9538 70.7236 22.7715C70.7874 22.5846 70.8193 22.3659 70.8193 22.1152V21.3633ZM73.8818 23.4346H74.6543C74.8366 23.0928 74.987 22.735 75.1055 22.3613C75.2285 21.9831 75.3265 21.6025 75.3994 21.2197C75.4723 20.8369 75.5247 20.4632 75.5566 20.0986C75.5885 19.7295 75.6113 19.3831 75.625 19.0596C75.6387 18.736 75.6432 18.4443 75.6387 18.1846C75.6387 17.9248 75.641 17.7129 75.6455 17.5488H81.4697V23.4346H82.4062V26.791H80.5879V25H75.7002V26.791H73.8818V23.4346ZM79.542 23.4346V19.1211H77.3271C77.3271 19.2578 77.3249 19.4264 77.3203 19.627C77.3203 19.8275 77.3112 20.0508 77.293 20.2969C77.2793 20.5384 77.2565 20.7959 77.2246 21.0693C77.1973 21.3428 77.154 21.6162 77.0947 21.8896C77.04 22.1631 76.9717 22.432 76.8896 22.6963C76.8122 22.9606 76.7142 23.2067 76.5957 23.4346H79.542Z" fill="#333333"/>
    <mask id="mask0" mask-type="alpha" maskUnits="userSpaceOnUse" x="12" y="10" width="20" height="20">
        <circle cx="22" cy="20" r="10" fill="#333333"/>
    </mask>
    <g mask="url(#mask0)">
        <path d="M12 20C12 14.4772 16.4772 10 22 10V10V30V30C16.4772 30 12 25.5228 12 20V20Z" fill="#333333"/>
        <path d="M22 10V10C27.5228 10 32 14.4772 32 20V20C32 25.5228 27.5228 30 22 30V30V10Z" fill="#333333"/>
        <circle cx="22" cy="20" r="5" fill="white"/>
    </g>
    <defs>
        <filter id="filter0_d" x="0" y="0" width="95" height="50.6712" filterUnits="userSpaceOnUse" color-interpolation-filters="sRGB">
            <feFlood flood-opacity="0" result="BackgroundImageFix"/>
            <feColorMatrix in="SourceAlpha" type="matrix" values="0 0 0 0 0 0 0 0 0 0 0 0 0 0 0 0 0 0 127 0"/>
            <feOffset dy="2"/>
            <feGaussianBlur stdDeviation="2"/>
            <feColorMatrix type="matrix" values="0 0 0 0 0 0 0 0 0 0 0 0 0 0 0 0 0 0 0.15 0"/>
            <feBlend mode="normal" in2="BackgroundImageFix" result="effect1_dropShadow"/>
            <feBlend mode="normal" in="SourceGraphic" in2="effect1_dropShadow" result="shape"/>
        </filter>
    </defs>
</svg>
