<?xml version="1.0" encoding="UTF-8"?>
<svg width="13px" height="8px" viewBox="0 0 13 8" version="1.1" xmlns="http://www.w3.org/2000/svg" xmlns:xlink="http://www.w3.org/1999/xlink">
    <!-- Generator: Sketch 53.2 (72643) - https://sketchapp.com -->
    <title></title>
    <desc>Created with Sketch.</desc>
    <g id="Отправитель" stroke="none" stroke-width="1" fill="none" fill-rule="evenodd">
        <g id="arlicle2_320" transform="translate(-272.000000, -1404.000000)" fill="#ef483e">
            <g id="Group-10" transform="translate(15.000000, 1380.000000)">
                <polygon id="" transform="translate(263.703125, 28.000000) rotate(90.000000) translate(-263.703125, -28.000000) " points="260 32.59375 264.59375 28 260 23.40625 261.40625 22 267.40625 28 261.40625 34"></polygon>
            </g>
        </g>
    </g>
</svg>