<svg xmlns="http://www.w3.org/2000/svg" width="32" height="32" viewBox="0 0 32 32">
    <g fill="none" fill-rule="evenodd">
        <circle cx="16" cy="16" r="15" stroke="#EF483E" stroke-width="2"/>
        <path fill="#EF483E" d="M15.99 14.168l5.538-5.538 1.822 1.823-5.537 5.537 5.572 5.572-1.823 1.823-5.572-5.572-5.526 5.526-1.823-1.822 5.527-5.527-5.553-5.552 1.823-1.823z"/>
    </g>
</svg>
