<svg xmlns="http://www.w3.org/2000/svg" xmlns:xlink="http://www.w3.org/1999/xlink" width="32" height="32" viewBox="0 0 32 32">
    <defs>
        <circle id="a" cx="16" cy="16" r="16"/>
    </defs>
    <g fill="none" fill-rule="evenodd">
        <mask id="b" fill="#fff">
            <use xlink:href="#a"/>
        </mask>
        <circle cx="16" cy="16" r="15" stroke="#979797" stroke-width="2"/>
        <path stroke="#979797" stroke-width="2" d="M4.001 35H28c.004-1.255-.006-1.93-.055-2.724-.197-3.22-.986-4.992-2.604-5.354l-.474-.105c-2.579-.578-3.772-.94-4.778-1.595-1.549-1.01-1.923-2.554-.922-4.382C23.447 13.027 21.416 8 16 8c-5.454 0-7.486 5.14-3.171 12.831 1.038 1.851.638 3.416-.962 4.428-1.023.646-2.173.987-4.824 1.578l-.383.085c-1.618.362-2.407 2.134-2.604 5.354-.049.794-.06 1.47-.055 2.724z" mask="url(#b)"/>
    </g>
</svg>
