<?xml version="1.0" encoding="UTF-8"?>
<svg width="18px" height="18px" viewBox="0 0 18 18" version="1.1" xmlns="http://www.w3.org/2000/svg" xmlns:xlink="http://www.w3.org/1999/xlink">
    <!-- Generator: Sketch 51 (57462) - http://www.bohemiancoding.com/sketch -->
    <title>Instagram Icon</title>
    <desc>Created with Sketch.</desc>
    <defs></defs>
    <g id="Symbols" stroke="none" stroke-width="1" fill="none" fill-rule="evenodd">
        <g id="UI/footer" transform="translate(-153.000000, -45.000000)">
            <g id="Instagram-Icon" transform="translate(153.000000, 45.000000)">
                <path d="M2.11455793,0 C0.946719007,0 3.9496984e-06,0.946703209 0,2.11455003 C0,5.57831703 0,12.421683 0,15.8854421 C3.9496984e-06,17.053281 0.946719007,17.9999961 2.11455793,18 C5.57831703,18 12.421683,18 15.88545,18 C17.0532968,17.9999961 18,17.053281 18,15.8854421 C18,12.421683 18,5.57831703 18,2.11455003 C18,0.946703209 17.0532968,0 15.88545,0 C12.421683,0 5.57831703,0 2.11455793,0 Z" id="vkontakte-copy" fill="#EF483E"></path>
                <g id="Instagram2" transform="translate(3.000000, 3.000000)" fill="#FFFFFF">
                    <path d="M0,3.4226625 C0,1.5323775 1.531995,0 3.4226625,0 L8.577375,0 C10.4676,0 12,1.531995 12,3.4226625 L12,8.577375 C12,10.4676 10.467975,12 8.577375,12 L3.4226625,12 C1.5323775,12 0,10.467975 0,8.577375 L0,3.4226625 Z M8.57145,2.5714275 C8.57145,3.0481125 8.95515,3.4285725 9.42855,3.4285725 C9.90525,3.4285725 10.285725,3.0448125 10.285725,2.5714275 C10.285725,2.0947425 9.90195,1.7142825 9.42855,1.7142825 C8.95185,1.7142825 8.57145,2.0980425 8.57145,2.5714275 Z M3.4285725,6 C3.4285725,7.417275 4.5798375,8.57145 6,8.57145 C7.417275,8.57145 8.57145,7.4201625 8.57145,6 C8.57145,4.5827325 7.4201625,3.4285725 6,3.4285725 C4.5827325,3.4285725 3.4285725,4.5798375 3.4285725,6 Z" id="Shape"></path>
                </g>
                <path d="M7.2857175,9 C7.2857175,8.05323 8.0466225,7.2857175 9,7.2857175 C9.9467775,7.2857175 10.714275,8.0466225 10.714275,9 C10.714275,9.9467775 9.9533775,10.714275 9,10.714275 C8.05323,10.714275 7.2857175,9.9533775 7.2857175,9 Z" id="Path" stroke="#EF483E" fill="#FFFFFF"></path>
            </g>
        </g>
    </g>
</svg>