<svg xmlns="http://www.w3.org/2000/svg" width="22" height="22" viewBox="0 0 22 22">
    <g fill="#EF483E" fill-rule="evenodd">
        <rect width="2" height="6" x="10" fill-opacity=".72" rx="1"/>
        <rect width="2" height="6" x="10" y="16" opacity=".24" rx="1"/>
        <rect width="2" height="6" x="18" y="8" rx="1" transform="rotate(90 19 11)"/>
        <rect width="2" height="6" x="2" y="8" opacity=".48" rx="1" transform="rotate(90 3 11)"/>
        <rect width="2" height="6" x="15.657" y="2.343" fill-opacity=".84" rx="1" transform="rotate(45 16.657 5.343)"/>
        <rect width="2" height="6" x="4.343" y="13.657" opacity=".36" rx="1" transform="rotate(45 5.343 16.657)"/>
        <rect width="2" height="6" x="15.657" y="13.657" opacity=".12" rx="1" transform="rotate(135 16.657 16.657)"/>
        <rect width="2" height="6" x="4.343" y="2.343" opacity=".6" rx="1" transform="rotate(135 5.343 5.343)"/>
    </g>
</svg>
