<svg xmlns="http://www.w3.org/2000/svg" width="25" height="14" viewBox="0 0 25 14">
    <g fill="none" fill-rule="evenodd">
        <path fill="#FFF" d="M17.857 14c-3.945 0-7.143-3.134-7.143-7s3.198-7 7.143-7S25 3.134 25 7s-3.198 7-7.143 7zm0-3.756c1.828 0 3.31-1.452 3.31-3.244 0-1.792-1.482-3.244-3.31-3.244S14.547 5.208 14.547 7c0 1.792 1.482 3.244 3.31 3.244z"/>
        <path fill="#EF483E" d="M7.143 14C3.198 14 0 10.866 0 7s3.198-7 7.143-7 7.143 3.134 7.143 7-3.198 7-7.143 7zm0-3.756c1.828 0 3.31-1.452 3.31-3.244 0-1.792-1.482-3.244-3.31-3.244S3.833 5.208 3.833 7c0 1.792 1.482 3.244 3.31 3.244z"/>
    </g>
</svg>
