<svg xmlns="http://www.w3.org/2000/svg" width="18" height="18" viewBox="0 0 18 18">
    <path fill="#EF483E" fill-rule="evenodd" d="M2.115 0A2.115 2.115 0 0 0 0 2.115v13.77C0 17.053.947 18 2.115 18h13.77A2.115 2.115 0 0 0 18 15.885V2.115A2.115 2.115 0 0 0 15.885 0H2.115zm7.311 12.963s.222-.027.336-.163c.104-.124.101-.357.101-.357s-.014-1.092.444-1.252c.452-.16 1.032 1.055 1.646 1.521.466.353.819.276.819.276l1.644-.025s.86-.059.452-.807c-.033-.06-.237-.553-1.222-1.564-1.031-1.058-.893-.887.348-2.717.757-1.115 1.06-1.795.965-2.087-.09-.277-.646-.204-.646-.204l-1.852.013s-.137-.02-.239.047c-.1.066-.163.22-.163.22s-.293.862-.684 1.595c-.824 1.548-1.154 1.63-1.288 1.534-.314-.224-.235-.9-.235-1.38 0-1.5.205-2.126-.401-2.288-.201-.053-.35-.089-.864-.095-.66-.007-1.22.003-1.536.174-.21.114-.373.368-.274.383.122.018.399.083.546.304.19.285.183.926.183.926s.11 1.766-.254 1.985c-.25.15-.592-.157-1.327-1.561a13.73 13.73 0 0 1-.66-1.514s-.056-.15-.154-.229c-.118-.096-.284-.126-.284-.126l-1.759.012s-.264.008-.361.135c-.086.113-.007.347-.007.347s1.377 3.563 2.937 5.358c1.43 1.647 3.053 1.539 3.053 1.539h.736z"/>
</svg>
